<svg id="Base_UI_Logo_Colour" data-name="Base UI/Logo/Colour" xmlns="http://www.w3.org/2000/svg" xmlns:xlink="http://www.w3.org/1999/xlink" width="220" height="52" viewBox="0 0 220 52">
  <defs>
    <clipPath id="clip-path">
      <path id="Clip_6" data-name="Clip 6" d="M0,0H36.316V46.8H0Z" fill="none"/>
    </clipPath>
    <clipPath id="clip-path-2">
      <path id="Clip_15" data-name="Clip 15" d="M0,49.472H217.755V0H0Z" fill="none"/>
    </clipPath>
  </defs>
  <g id="Group_39" data-name="Group 39" transform="translate(0.719 0.876)">
    <g id="Group_7" data-name="Group 7" transform="translate(0 2.669)">
      <path id="Clip_6-2" data-name="Clip 6" d="M0,0H36.316V46.8H0Z" transform="translate(0 0)" fill="none"/>
      <g id="Group_7-2" data-name="Group 7" transform="translate(0 0)" clip-path="url(#clip-path)">
        <path id="Fill_5" data-name="Fill 5" d="M13.522,0a15.493,15.493,0,0,1,4,4.348,15.551,15.551,0,0,1,2.21,9.926,18.342,18.342,0,0,0,8.817,28.9,18.1,18.1,0,0,0,7.77.691A24.478,24.478,0,0,1,24.66,46.8,24.748,24.748,0,0,1,13.522,0" transform="translate(0)" fill="#f6bf35"/>
      </g>
    </g>
    <path id="Fill_8" data-name="Fill 8" d="M33.278,16.511A18.191,18.191,0,0,0,9.636,12.869,18.361,18.361,0,0,0,7.9,9.15,18.188,18.188,0,0,0,0,2.134,24.595,24.595,0,0,1,24.413,4.65a24.8,24.8,0,0,1,5.319,5.226,24.675,24.675,0,0,1,3.547,6.634Zm-20.76-14.6a3.416,3.416,0,1,0,1.02.157A3.4,3.4,0,0,0,12.518,1.916Z" transform="translate(14.64 0)" fill="#0070ad"/>
    <path id="Fill_10" data-name="Fill 10" d="M16.161,31.164a15.441,15.441,0,0,1-5.264-.7A15.581,15.581,0,1,1,25.309,3.471a24.77,24.77,0,0,1,1.18,7.566A24.734,24.734,0,0,1,16.161,31.164" transform="translate(22.832 13.696)" fill="#72175e"/>
    <path id="Fill_12" data-name="Fill 12" d="M0,0H3.005V14.379H15.313v2.128H0Z" transform="translate(60.327 11.271)" fill="#72175e"/>
    <path id="Clip_15-2" data-name="Clip 15" d="M0,49.472H217.755V0H0Z" transform="translate(0 0)" fill="none"/>
    <g id="Mask_Group_21" data-name="Mask Group 21" transform="translate(0 0)" clip-path="url(#clip-path-2)">
      <path id="Fill_14" data-name="Fill 14" d="M0,16.506H3.007V0H0Z" transform="translate(78.611 11.27)" fill="#72175e"/>
      <path id="Fill_16" data-name="Fill 16" d="M17.863,0H21.1L12.222,16.506h-3.2L0,0H3.4L10.69,13.963Z" transform="translate(84.024 11.271)" fill="#72175e"/>
      <path id="Fill_17" data-name="Fill 17" d="M0,16.506H3.005V0H0Z" transform="translate(107.526 11.27)" fill="#72175e"/>
      <path id="Fill_18" data-name="Fill 18" d="M3.061,3.374H3V16.506H0V0H3.488L16.5,13.132h.057V0h3.005V16.506H16.076Z" transform="translate(115.55 11.271)" fill="#72175e"/>
      <path id="Fill_19" data-name="Fill 19" d="M11.824,8.022h9.3v8.9H18.971l-.51-2.356c-1.334,1.27-3.485,2.773-7.769,2.773C2.579,17.34,0,12.579,0,8.946,0,2.568,5.36,0,10.6,0c4.168,0,8.9,1.064,10.181,5.618H17.61c-.935-2.289-3.035-3.491-6.863-3.491-5.36,0-7.742,3.1-7.742,6.612,0,4.67,3.659,6.473,7.884,6.473,4.4,0,7.259-2.127,7.572-5.064H11.824V8.022" transform="translate(139.133 10.854)" fill="#72175e"/>
      <path id="Fill_20" data-name="Fill 20" d="M0,24.134H1.78V0H0Z" transform="translate(165.68 3.642)" fill="#0070ad"/>
      <path id="Fill_21" data-name="Fill 21" d="M2.032,23.735H.252V6.36h1.78V23.734ZM1.2,2.518A1.219,1.219,0,0,1,0,1.259,1.233,1.233,0,0,1,1.2,0,1.232,1.232,0,0,1,2.4,1.259,1.218,1.218,0,0,1,1.2,2.518Z" transform="translate(173.766 4.042)" fill="#0070ad"/>
      <path id="Fill_22" data-name="Fill 22" d="M11.477,6.523H6.229V18.658c0,2.807,1.827,3.077,5.2,3.01v1.115c-3.655.169-7.17-.2-6.983-4.125V6.523H0V5.407H4.448V0H6.229V5.407h5.248V6.523" transform="translate(179.31 4.995)" fill="#0070ad"/>
      <path id="Fill_23" data-name="Fill 23" d="M10.634,18.187c-3.587,0-6.491-1.032-8.4-2.984A7.879,7.879,0,0,1,0,9.4,8.8,8.8,0,0,1,2.47,3a11.079,11.079,0,0,1,8.164-3C14.35,0,17.3,1.053,19.153,3.045a8.074,8.074,0,0,1,2.07,6.217H1.779a7.278,7.278,0,0,0,2.026,5.3,9.257,9.257,0,0,0,6.829,2.506c4.548,0,7.771-1.934,8.622-5.173h1.781a7.155,7.155,0,0,1-3.41,4.666A13.479,13.479,0,0,1,10.634,18.187Zm0-17.071c-5.31,0-8.474,3.537-8.855,7.031H19.444C19.355,4.653,16.3,1.116,10.634,1.116Z" transform="translate(193.457 9.996)" fill="#0070ad"/>
      <path id="Fill_24" data-name="Fill 24" d="M1.977,3.963A2,2,0,0,1,.994,3.7a1.853,1.853,0,0,1-.732-.734,1.989,1.989,0,0,1,0-1.979,1.835,1.835,0,0,1,.74-.732A2.03,2.03,0,0,1,1.977,0a2.033,2.033,0,0,1,.972.256,1.829,1.829,0,0,1,.738.732,1.993,1.993,0,0,1,0,1.979,1.846,1.846,0,0,1-.73.734A2.006,2.006,0,0,1,1.977,3.963Zm0-3.635a1.681,1.681,0,0,0-.81.214,1.533,1.533,0,0,0-.617.612,1.648,1.648,0,0,0,0,1.649,1.565,1.565,0,0,0,.612.612,1.64,1.64,0,0,0,1.639,0A1.556,1.556,0,0,0,3.407,2.8a1.662,1.662,0,0,0,0-1.649A1.528,1.528,0,0,0,2.786.543,1.686,1.686,0,0,0,1.977.328ZM1.453,3.079H1.11V.945h.731A1.8,1.8,0,0,1,2.383,1a.526.526,0,0,1,.267.207.547.547,0,0,1,.1.312.569.569,0,0,1-.166.407.662.662,0,0,1-.442.194.593.593,0,0,1,.181.113,2.449,2.449,0,0,1,.314.423l.259.416H2.477l-.189-.336a1.732,1.732,0,0,0-.358-.5.45.45,0,0,0-.276-.073h-.2v.906Zm0-1.844v.644H1.87a.667.667,0,0,0,.406-.09.3.3,0,0,0,.056-.405.309.309,0,0,0-.145-.112,1.091,1.091,0,0,0-.344-.037Z" transform="translate(213.803 7.612)" fill="#0070ad"/>
      <path id="Fill_25" data-name="Fill 25" d="M0,5.672l.512-.711A2.867,2.867,0,0,0,2.6,5.869c.971,0,1.5-.46,1.5-1.092C4.094,3.237.17,4.185.17,1.829.17.842,1.023,0,2.532,0A3.2,3.2,0,0,1,4.881.921l-.46.684A2.465,2.465,0,0,0,2.532.8c-.865,0-1.4.434-1.4,1,0,1.395,3.923.474,3.923,2.948,0,1.065-.853,1.921-2.493,1.921A3.365,3.365,0,0,1,0,5.672" transform="translate(60.186 36.38)" fill="#131111"/>
      <path id="Fill_26" data-name="Fill 26" d="M4.277,6.356V5.461A3.1,3.1,0,0,1,2.021,6.514,1.785,1.785,0,0,1,0,4.487V0H.984V4.185c0,1.118.565,1.447,1.417,1.447a2.423,2.423,0,0,0,1.877-.961V0h.984V6.356Z" transform="translate(67.18 36.537)" fill="#131111"/>
      <path id="Fill_27" data-name="Fill 27" d="M.984,8.935H0V.158H.984V1.1A2.634,2.634,0,0,1,3.123,0C4.837,0,5.944,1.307,5.944,3.329A3.685,3.685,0,0,1,5.158,5.77a2.6,2.6,0,0,1-2.035.9A2.587,2.587,0,0,1,.984,5.553V8.934ZM2.874.882A2.343,2.343,0,0,0,.984,1.895V4.763A2.347,2.347,0,0,0,2.874,5.79c1.216,0,2.034-.989,2.034-2.461S4.09.882,2.874.882Z" transform="translate(74.751 36.379)" fill="#131111"/>
      <path id="Fill_28" data-name="Fill 28" d="M.984,8.935H0V.158H.984V1.1A2.634,2.634,0,0,1,3.123,0C4.837,0,5.944,1.307,5.944,3.329A3.685,3.685,0,0,1,5.158,5.77a2.6,2.6,0,0,1-2.035.9A2.587,2.587,0,0,1,.984,5.553V8.934ZM2.874.882A2.343,2.343,0,0,0,.984,1.895V4.763A2.347,2.347,0,0,0,2.874,5.79c1.216,0,2.034-.989,2.034-2.461S4.09.882,2.874.882Z" transform="translate(82.598 36.379)" fill="#131111"/>
      <path id="Fill_29" data-name="Fill 29" d="M3.136,6.672a2.984,2.984,0,0,1-2.291-.98A3.513,3.513,0,0,1,0,3.329,3.491,3.491,0,0,1,.845.974,2.991,2.991,0,0,1,3.136,0,2.991,2.991,0,0,1,5.427.974a3.492,3.492,0,0,1,.845,2.355,3.513,3.513,0,0,1-.845,2.362A2.984,2.984,0,0,1,3.136,6.672Zm0-5.79A2.214,2.214,0,0,0,1.024,3.329,2.222,2.222,0,0,0,3.136,5.79a2.219,2.219,0,0,0,2.1-2.461A2.21,2.21,0,0,0,3.136.882Z" transform="translate(90.078 36.379)" fill="#131111"/>
      <path id="Fill_30" data-name="Fill 30" d="M0,6.487V.132H.984V1.158A2.689,2.689,0,0,1,3.1,0V1.013A1.735,1.735,0,0,0,2.7.973,2.318,2.318,0,0,0,.984,1.987v4.5Z" transform="translate(98.292 36.406)" fill="#131111"/>
      <path id="Fill_31" data-name="Fill 31" d="M1.05,6.764V2.6H0V1.737H1.05V0h.984V1.737H3.319V2.6H2.034V6.553c0,.474.21.816.643.816a.947.947,0,0,0,.669-.263l.289.737a1.607,1.607,0,0,1-1.181.408,1.3,1.3,0,0,1-1.4-1.487" transform="translate(102.111 34.801)" fill="#131111"/>
      <path id="Fill_32" data-name="Fill 32" d="M.984,8.935H0V.158H.984V1.1A2.633,2.633,0,0,1,3.123,0C4.836,0,5.944,1.307,5.944,3.329A3.684,3.684,0,0,1,5.158,5.77a2.6,2.6,0,0,1-2.035.9A2.585,2.585,0,0,1,.984,5.553V8.934ZM2.874.882A2.341,2.341,0,0,0,.984,1.895V4.763A2.345,2.345,0,0,0,2.874,5.79c1.216,0,2.034-.989,2.034-2.461S4.09.882,2.874.882Z" transform="translate(110.889 36.379)" fill="#131111"/>
      <path id="Fill_33" data-name="Fill 33" d="M0,6.487V.132H.984V1.158A2.69,2.69,0,0,1,3.1,0V1.013A1.735,1.735,0,0,0,2.7.973,2.319,2.319,0,0,0,.984,1.987v4.5Z" transform="translate(118.736 36.406)" fill="#131111"/>
      <path id="Fill_34" data-name="Fill 34" d="M3.135,6.672a2.983,2.983,0,0,1-2.291-.98A3.514,3.514,0,0,1,0,3.329,3.492,3.492,0,0,1,.844.974,2.99,2.99,0,0,1,3.135,0,2.992,2.992,0,0,1,5.427.974a3.491,3.491,0,0,1,.845,2.355,3.513,3.513,0,0,1-.845,2.362A2.985,2.985,0,0,1,3.135,6.672Zm0-5.79A2.214,2.214,0,0,0,1.023,3.329,2.223,2.223,0,0,0,3.136,5.79a2.218,2.218,0,0,0,2.1-2.461A2.21,2.21,0,0,0,3.136.882Z" transform="translate(123.04 36.379)" fill="#131111"/>
      <path id="Fill_35" data-name="Fill 35" d="M2.913,9.093A3.212,3.212,0,0,1,.354,8.146l.5-.737a2.416,2.416,0,0,0,2.06.868A1.813,1.813,0,0,0,4.946,6.369V5.461A2.635,2.635,0,0,1,2.821,6.592C1.107,6.592,0,5.3,0,3.3A3.615,3.615,0,0,1,.786.887,2.611,2.611,0,0,1,2.821,0,2.633,2.633,0,0,1,4.946,1.119V.158h.984V6.33C5.931,8.734,4.04,9.093,2.913,9.093ZM3.057.882c-1.236,0-2.034.951-2.034,2.422,0,1.448.817,2.421,2.034,2.421a2.356,2.356,0,0,0,1.889-1.04V1.909A2.347,2.347,0,0,0,3.057.882Z" transform="translate(130.887 36.379)" fill="#131111"/>
      <path id="Fill_36" data-name="Fill 36" d="M0,6.487V.132H.984V1.158A2.69,2.69,0,0,1,3.1,0V1.013A1.739,1.739,0,0,0,2.7.973,2.319,2.319,0,0,0,.984,1.987v4.5Z" transform="translate(139.128 36.406)" fill="#131111"/>
      <path id="Fill_37" data-name="Fill 37" d="M2.218,6.672A2.377,2.377,0,0,1,.705,6.137,1.98,1.98,0,0,1,0,4.566,2.072,2.072,0,0,1,2.218,2.474a2.638,2.638,0,0,1,2.1.868V2.2c0-.816-.628-1.343-1.6-1.343a2.518,2.518,0,0,0-1.942.882L.315,1.053A3.291,3.291,0,0,1,2.847,0C4.406,0,5.3.782,5.3,2.145V6.514H4.317V5.79A2.746,2.746,0,0,1,2.218,6.672Zm.354-3.487a1.4,1.4,0,1,0,0,2.777,2.126,2.126,0,0,0,1.745-.79v-1.2A2.127,2.127,0,0,0,2.572,3.184Z" transform="translate(143.445 36.379)" fill="#131111"/>
      <path id="Fill_38" data-name="Fill 38" d="M7.649,6.513V2.2c0-.8-.354-1.316-1.168-1.316A2.214,2.214,0,0,0,4.8,1.855V6.513H3.818V2.2c0-.8-.342-1.316-1.168-1.316a2.211,2.211,0,0,0-1.667.987V6.513H0V.158H.984v.921A2.739,2.739,0,0,1,3.031,0,1.627,1.627,0,0,1,4.737,1.185,2.665,2.665,0,0,1,6.862,0C8.016,0,8.633.644,8.633,1.921V6.513Z" transform="translate(151.056 36.38)" fill="#131111"/>
    </g>
  </g>
</svg>
